<?xml version="1.0" encoding="UTF-8" standalone="no"?>
<svg
   xmlns:dc="http://purl.org/dc/elements/1.1/"
   xmlns:cc="http://creativecommons.org/ns#"
   xmlns:rdf="http://www.w3.org/1999/02/22-rdf-syntax-ns#"
   xmlns:svg="http://www.w3.org/2000/svg"
   xmlns="http://www.w3.org/2000/svg"
   xmlns:sodipodi="http://sodipodi.sourceforge.net/DTD/sodipodi-0.dtd"
   xmlns:inkscape="http://www.inkscape.org/namespaces/inkscape"
   version="1.1"
   x="0px"
   y="0px"
   viewBox="0 0 83 83"
   enable-background="new 0 0 100 100"
   xml:space="preserve"
   id="svg34"
   sodipodi:docname="logo.svg"
   inkscape:version="1.0.1 (3bc2e813f5, 2020-09-07, custom)"
   width="83"
   height="83"
   inkscape:export-filename="/home/mupuf/src/boot2container/logo/logo.png"
   inkscape:export-xdpi="4737.54"
   inkscape:export-ydpi="4737.54"><metadata
     id="metadata40"><rdf:RDF><cc:Work
         rdf:about=""><dc:format>image/svg+xml</dc:format><dc:type
           rdf:resource="http://purl.org/dc/dcmitype/StillImage" /><dc:title></dc:title></cc:Work></rdf:RDF></metadata><defs
     id="defs38" /><sodipodi:namedview
     pagecolor="#ffffff"
     bordercolor="#666666"
     borderopacity="1"
     objecttolerance="10"
     gridtolerance="10"
     guidetolerance="10"
     inkscape:pageopacity="0"
     inkscape:pageshadow="2"
     inkscape:window-width="2560"
     inkscape:window-height="1375"
     id="namedview36"
     showgrid="false"
     inkscape:zoom="16"
     inkscape:cx="66.487311"
     inkscape:cy="34.508856"
     inkscape:window-x="0"
     inkscape:window-y="0"
     inkscape:window-maximized="1"
     inkscape:current-layer="svg34"
     fit-margin-top="0"
     fit-margin-left="0"
     fit-margin-right="0"
     fit-margin-bottom="0"
     inkscape:pagecheckerboard="true" /><g
     id="g26"
     transform="matrix(-1,0,0,1,92.474494,-18.738836)" /><g
     id="g1735"><rect
       style="fill:#b880c6;fill-opacity:1;stroke:#892ca0;stroke-width:2.143;stroke-miterlimit:4;stroke-dasharray:none;stroke-opacity:1"
       id="rect894-3-6-3"
       width="13.103308"
       height="12.311659"
       x="30.206278"
       y="33.745827" /><path
       style="fill:none;stroke:#892ca0;stroke-width:1.28747;stroke-linecap:round;stroke-linejoin:miter;stroke-miterlimit:4;stroke-dasharray:none;stroke-opacity:1"
       d="m 33.300618,43.302138 -0.01948,-6.524616"
       id="path1279"
       sodipodi:nodetypes="cc" /><path
       style="fill:none;stroke:#892ca0;stroke-width:1.28747;stroke-linecap:round;stroke-linejoin:miter;stroke-miterlimit:4;stroke-dasharray:none;stroke-opacity:1"
       d="m 36.742735,43.304466 -0.01947,-6.524617"
       id="path1279-9"
       sodipodi:nodetypes="cc" /><path
       style="fill:none;stroke:#892ca0;stroke-width:1.28747;stroke-linecap:round;stroke-linejoin:miter;stroke-miterlimit:4;stroke-dasharray:none;stroke-opacity:1"
       d="m 40.184854,43.3401 -0.01947,-6.524617"
       id="path1279-6"
       sodipodi:nodetypes="cc" /></g><g
     id="g1717"><rect
       style="fill:#b880c6;fill-opacity:1;stroke:#892ca0;stroke-width:2.143;stroke-miterlimit:4;stroke-dasharray:none;stroke-opacity:1"
       id="rect894-3-6-3-1"
       width="13.103308"
       height="12.311659"
       x="30.208754"
       y="19.418634" /><path
       style="fill:none;stroke:#892ca0;stroke-width:1.28747;stroke-linecap:round;stroke-linejoin:miter;stroke-miterlimit:4;stroke-dasharray:none;stroke-opacity:1"
       d="m 33.303092,28.974946 -0.01948,-6.524617"
       id="path1279-94"
       sodipodi:nodetypes="cc" /><path
       style="fill:none;stroke:#892ca0;stroke-width:1.28747;stroke-linecap:round;stroke-linejoin:miter;stroke-miterlimit:4;stroke-dasharray:none;stroke-opacity:1"
       d="M 36.74521,28.977274 36.72574,22.452657"
       id="path1279-9-7"
       sodipodi:nodetypes="cc" /><path
       style="fill:none;stroke:#892ca0;stroke-width:1.28747;stroke-linecap:round;stroke-linejoin:miter;stroke-miterlimit:4;stroke-dasharray:none;stroke-opacity:1"
       d="M 40.187329,29.012907 40.167854,22.48829"
       id="path1279-6-8"
       sodipodi:nodetypes="cc" /></g><g
     id="g1723"><rect
       style="fill:#b880c6;fill-opacity:1;stroke:#892ca0;stroke-width:2.143;stroke-miterlimit:4;stroke-dasharray:none;stroke-opacity:1"
       id="rect894-3-6-3-7-4"
       width="13.103308"
       height="12.311659"
       x="45.436222"
       y="19.440422" /><path
       style="fill:none;stroke:#892ca0;stroke-width:1.28747;stroke-linecap:round;stroke-linejoin:miter;stroke-miterlimit:4;stroke-dasharray:none;stroke-opacity:1"
       d="m 48.530561,28.996735 -0.01947,-6.524618"
       id="path1279-92-5"
       sodipodi:nodetypes="cc" /><path
       style="fill:none;stroke:#892ca0;stroke-width:1.28747;stroke-linecap:round;stroke-linejoin:miter;stroke-miterlimit:4;stroke-dasharray:none;stroke-opacity:1"
       d="m 51.972679,28.999062 -0.01947,-6.524618"
       id="path1279-9-0-0"
       sodipodi:nodetypes="cc" /><path
       style="fill:none;stroke:#892ca0;stroke-width:1.28747;stroke-linecap:round;stroke-linejoin:miter;stroke-miterlimit:4;stroke-dasharray:none;stroke-opacity:1"
       d="m 55.414794,29.034695 -0.01949,-6.524616"
       id="path1279-6-2-3"
       sodipodi:nodetypes="cc" /></g><g
     id="g1711"><rect
       style="fill:#b880c6;fill-opacity:1;stroke:#892ca0;stroke-width:2.143;stroke-miterlimit:4;stroke-dasharray:none;stroke-opacity:1"
       id="rect894-3-6-3-1-3"
       width="13.103308"
       height="12.311659"
       x="30.210518"
       y="5.0644097" /><path
       style="fill:none;stroke:#892ca0;stroke-width:1.28747;stroke-linecap:round;stroke-linejoin:miter;stroke-miterlimit:4;stroke-dasharray:none;stroke-opacity:1"
       d="M 33.304859,14.620721 33.285376,8.0961028"
       id="path1279-94-2"
       sodipodi:nodetypes="cc" /><path
       style="fill:none;stroke:#892ca0;stroke-width:1.28747;stroke-linecap:round;stroke-linejoin:miter;stroke-miterlimit:4;stroke-dasharray:none;stroke-opacity:1"
       d="M 36.746976,14.623049 36.727502,8.0984312"
       id="path1279-9-7-0"
       sodipodi:nodetypes="cc" /><path
       style="fill:none;stroke:#892ca0;stroke-width:1.28747;stroke-linecap:round;stroke-linejoin:miter;stroke-miterlimit:4;stroke-dasharray:none;stroke-opacity:1"
       d="M 40.189095,14.658682 40.16962,8.1340642"
       id="path1279-6-8-6"
       sodipodi:nodetypes="cc" /></g><g
     id="g1741"
     transform="translate(-0.02566051)"><rect
       style="fill:#b880c6;fill-opacity:1;stroke:#892ca0;stroke-width:2.143;stroke-miterlimit:4;stroke-dasharray:none;stroke-opacity:1"
       id="rect894-3-6-3-7"
       width="13.103308"
       height="12.311659"
       x="45.466694"
       y="33.782856" /><path
       style="fill:none;stroke:#892ca0;stroke-width:1.28747;stroke-linecap:round;stroke-linejoin:miter;stroke-miterlimit:4;stroke-dasharray:none;stroke-opacity:1"
       d="m 48.561032,43.339167 -0.01947,-6.524618"
       id="path1279-92"
       sodipodi:nodetypes="cc" /><path
       style="fill:none;stroke:#892ca0;stroke-width:1.28747;stroke-linecap:round;stroke-linejoin:miter;stroke-miterlimit:4;stroke-dasharray:none;stroke-opacity:1"
       d="m 52.003151,43.341494 -0.01947,-6.524618"
       id="path1279-9-0"
       sodipodi:nodetypes="cc" /><path
       style="fill:none;stroke:#892ca0;stroke-width:1.28747;stroke-linecap:round;stroke-linejoin:miter;stroke-miterlimit:4;stroke-dasharray:none;stroke-opacity:1"
       d="m 55.445268,43.377127 -0.01947,-6.524616"
       id="path1279-6-2"
       sodipodi:nodetypes="cc" /></g><g
     id="g1729"
     transform="translate(-0.07668483,0.00968766)"><rect
       style="fill:#b880c6;fill-opacity:1;stroke:#892ca0;stroke-width:2.143;stroke-miterlimit:4;stroke-dasharray:none;stroke-opacity:1"
       id="rect894-3-6-3-75"
       width="13.103307"
       height="12.31166"
       x="60.728191"
       y="33.801231" /><path
       style="fill:none;stroke:#892ca0;stroke-width:1.28748;stroke-linecap:round;stroke-linejoin:miter;stroke-miterlimit:4;stroke-dasharray:none;stroke-opacity:1"
       d="m 63.822521,43.357543 -0.01947,-6.524618"
       id="path1279-922"
       sodipodi:nodetypes="cc" /><path
       style="fill:none;stroke:#892ca0;stroke-width:1.28748;stroke-linecap:round;stroke-linejoin:miter;stroke-miterlimit:4;stroke-dasharray:none;stroke-opacity:1"
       d="M 67.26464,43.35987 67.24517,36.835252"
       id="path1279-9-8"
       sodipodi:nodetypes="cc" /><path
       style="fill:none;stroke:#892ca0;stroke-width:1.28748;stroke-linecap:round;stroke-linejoin:miter;stroke-miterlimit:4;stroke-dasharray:none;stroke-opacity:1"
       d="m 70.706757,43.395503 -0.01947,-6.524617"
       id="path1279-6-9"
       sodipodi:nodetypes="cc" /></g><g
     id="g1676"><path
       style="fill:#b880c6;fill-opacity:1;stroke:none;stroke-width:1px;stroke-linecap:butt;stroke-linejoin:miter;stroke-opacity:1"
       d="m 9.3464661,8.8826849 2.3461939,1.2363501 0.633756,4.061422 0.921446,9.292575 0.298419,5.848861 2.217579,10.197633 2.595885,3.292893 3.453727,3.064516 4.865646,1.875903 52.782977,0.503248 1.389035,0.508311 0.245445,1.368158 -4.967499,8.925106 -1.469547,0.974873 c 8.055154,1.514122 6.251294,6.688015 2.490725,8.662761 l 5.010597,10.110407 -1.689182,1.297272 -72.0441121,0.8058 L 8.5675406,57.586126 6.5364865,53.308294 1.2852933,42.829192 0.99944832,37.670922 7.1697752,10.070425 Z"
       id="path1649"
       sodipodi:nodetypes="cccccccccccccccccccccccc" /><path
       d="m 0.0125787,39.402135 c -0.033104,-1.548647 0.1136647,-3.105139 0.4449901,-4.63757 L 5.668582,10.658693 C 6.0435795,8.9232819 7.5454565,7.6849019 9.3200511,7.6469679 11.324593,7.6041179 13.0317,9.1349839 13.206434,11.132706 l 1.897646,21.674395 c 0.704025,8.041791 7.322624,14.128732 15.395119,14.159218 l 48.667025,0.182958 c 0.98531,0.0039 1.884241,0.505847 2.40425,1.342925 0.519987,0.836078 0.571971,1.864202 0.139774,2.74864 l -4.830007,9.87748 -2.220712,-1.085788 4.830007,-9.87748 c 0.07858,-0.160716 0.02273,-0.293553 -0.01867,-0.358683 -0.0404,-0.06515 -0.134753,-0.17416 -0.313819,-0.175333 L 30.490022,49.43808 C 21.131137,49.403085 13.457553,42.345468 12.641106,33.021788 L 10.743459,11.347393 c -0.06108,-0.704856 -0.663739,-1.244099 -1.3705779,-1.22899 -0.625857,0.01338 -1.1566506,0.449822 -1.2885809,1.062782 L 2.873287,35.287057 c -0.8792892,4.066721 -0.2751931,8.322782 1.6975127,11.984459 l 4.1651044,7.727751 c 0.792627,1.471396 1.231246,3.133402 1.2669799,4.80502 l 0.441384,20.648283 69.77406,-1.491512 c 0.17696,-0.0038 0.269651,-0.112789 0.309253,-0.17865 0.0396,-0.06586 0.09279,-0.198028 0.01539,-0.35641 l -5.784634,-9.887633 2.133818,-1.247887 5.82525,9.962781 c 0.475412,0.950057 0.433269,1.973191 -0.07494,2.811244 -0.506228,0.83701 -1.392487,1.349067 -2.371263,1.36999 L 8.0247055,82.978857 7.5304484,59.857139 C 7.5030502,58.575432 7.166744,57.301328 6.5584712,56.17207 L 2.3933669,48.444319 C 0.8862162,45.64589 0.079685,42.541417 0.0125787,39.402135 Z"
       id="path2"
       style="fill:#892ca0;fill-opacity:1;stroke-width:3.3;stroke-miterlimit:4;stroke-dasharray:none" /><path
       d="m 34.031811,65.393031 c -0.06054,-2.832353 2.194689,-5.185088 5.026042,-5.245612 l 38.448216,-0.821881 c 2.832353,-0.06055 5.185088,2.194689 5.245612,5.026042 0.06052,2.831353 -2.194688,5.185088 -5.026042,5.245612 l -38.448216,0.821881 c -2.831353,0.06052 -5.185067,-2.193689 -5.245612,-5.026042 z M 80.280246,64.40441 C 80.248856,62.935746 79.028564,61.765558 77.5589,61.796974 l -38.448217,0.821881 c -1.468665,0.03139 -2.638853,1.251682 -2.607437,2.721346 0.03142,1.469664 1.251682,2.638852 2.721347,2.607436 l 38.448216,-0.821881 c 1.469665,-0.03142 2.638831,-1.252681 2.607437,-2.721346 z"
       id="path12"
       style="fill:#892ca0;fill-opacity:1" /><path
       d="m 7.780678,60.37991 c 0,0 -7.1052584,-4.849258 -6.9984013,0.1496 0.042743,1.999544 0.4005647,18.73872 0.4005647,18.73872 l 7.2447155,1.640544"
       id="path14"
       style="fill:#892ca0;fill-opacity:1" /><rect
       x="49.850403"
       y="-69.5205"
       width="32.043999"
       height="8.1660004"
       id="rect16"
       transform="rotate(88.775414)"
       style="fill:#892ca0;fill-opacity:1" /><path
       d="m 12.965514,43.890526 c -0.0061,-0.285394 0.09987,-0.572309 0.318546,-0.79069 l 4.142196,-4.122679 c 0.423655,-0.421578 1.108589,-0.420454 1.531061,0.004 0.421579,0.423656 0.420454,1.108589 -0.004,1.531062 l -4.142195,4.122679 c -0.423656,0.421578 -1.108589,0.420454 -1.531062,-0.004 -0.203198,-0.204983 -0.308744,-0.471611 -0.314489,-0.740372 z"
       id="path18"
       style="fill:#892ca0;fill-opacity:1;stroke-width:0.875643" /><path
       d="m 17.161474,48.157618 c -0.0042,-0.196578 0.04832,-0.396013 0.163026,-0.572916 l 3.551017,-5.490434 c 0.305084,-0.471447 0.934163,-0.606679 1.406432,-0.301613 0.472269,0.305066 0.606679,0.934162 0.301613,1.406431 l -3.551017,5.490434 c -0.305084,0.471447 -0.934162,0.60668 -1.406432,0.301614 -0.294561,-0.191194 -0.457677,-0.507806 -0.464639,-0.833516 z"
       id="path20"
       style="fill:#892ca0;fill-opacity:1;stroke-width:0.822688" /><path
       d="m 21.394818,51.874887 c -0.0037,-0.175147 0.03518,-0.35295 0.121404,-0.51956 l 3.732951,-7.177812 c 0.274654,-0.528066 0.924982,-0.732887 1.453048,-0.458231 0.527194,0.274673 0.734648,0.925815 0.458232,1.453047 l -3.732951,7.177813 c -0.274655,0.528066 -0.924982,0.732887 -1.453048,0.458232 -0.361438,-0.187553 -0.571497,-0.552695 -0.579636,-0.933489 z"
       id="path22"
       style="fill:#892ca0;fill-opacity:1;stroke-width:0.871579" /><path
       d="M 9.3464661,8.8826849"
       id="path24"
       style="fill:#892ca0;fill-opacity:1" /></g></svg>
